Exploring the BRFSS data
…
love_factor <- brfss2013 %>%
  group_by(marital, lsatisfy) %>%
  summarise(count = n()) %>%
  filter(!is.na(marital), !is.na(lsatisfy))

## Warning: Factor `marital` contains implicit NA, consider using
## `forcats::fct_explicit_na`

## Warning: Factor `lsatisfy` contains implicit NA, consider using
## `forcats::fct_explicit_na`

print(love_factor)

## # A tibble: 24 x 3
## # Groups:   marital [6]
##    marital  lsatisfy          count
##    <fct>    <fct>             <int>
##  1 Married  Very satisfied     3122
##  2 Married  Satisfied          2289
##  3 Married  Dissatisfied        189
##  4 Married  Very dissatisfied    28
##  5 Divorced Very satisfied      624
##  6 Divorced Satisfied           922
##  7 Divorced Dissatisfied        154
##  8 Divorced Very dissatisfied    49
##  9 Widowed  Very satisfied      812
## 10 Widowed  Satisfied          1097
## #  with 14 more rows
…
